%YAML 1.1
%TAG !u! tag:unity3d.com,2011:
--- !u!1 &2189943231810045636
GameObject:
  m_ObjectHideFlags: 0
  m_CorrespondingSourceObject: {fileID: 0}
  m_PrefabInstance: {fileID: 0}
  m_PrefabAsset: {fileID: 0}
  serializedVersion: 6
  m_Component:
  - component: {fileID: 932394702684031487}
  - component: {fileID: 8954711149807322674}
  - component: {fileID: 3911016939907641833}
  m_Layer: 0
  m_Name: Layer1
  m_TagString: Untagged
  m_Icon: {fileID: 0}
  m_NavMeshLayer: 0
  m_StaticEditorFlags: 0
  m_IsActive: 1
--- !u!4 &932394702684031487
Transform:
  m_ObjectHideFlags: 0
  m_CorrespondingSourceObject: {fileID: 0}
  m_PrefabInstance: {fileID: 0}
  m_PrefabAsset: {fileID: 0}
  m_GameObject: {fileID: 2189943231810045636}
  m_LocalRotation: {x: -0, y: -0, z: -0, w: 1}
  m_LocalPosition: {x: 0, y: 0, z: 0}
  m_LocalScale: {x: 1, y: 1, z: 1}
  m_Children: []
  m_Father: {fileID: 224113024039972859}
  m_RootOrder: 0
  m_LocalEulerAnglesHint: {x: 0, y: 0, z: 0}
--- !u!1839735485 &8954711149807322674
Tilemap:
  m_ObjectHideFlags: 0
  m_CorrespondingSourceObject: {fileID: 0}
  m_PrefabInstance: {fileID: 0}
  m_PrefabAsset: {fileID: 0}
  m_GameObject: {fileID: 2189943231810045636}
  m_Enabled: 1
  m_Tiles:
  - first: {x: -1, y: -5, z: 0}
    second:
      serializedVersion: 2
      m_TileIndex: 80
      m_TileSpriteIndex: 80
      m_TileMatrixIndex: 0
      m_TileColorIndex: 0
      m_TileObjectToInstantiateIndex: 65535
      dummyAlignment: 0
      m_AllTileFlags: 1073741825
  - first: {x: 0, y: -5, z: 0}
    second:
      serializedVersion: 2
      m_TileIndex: 81
      m_TileSpriteIndex: 81
      m_TileMatrixIndex: 0
      m_TileColorIndex: 0
      m_TileObjectToInstantiateIndex: 65535
      dummyAlignment: 0
      m_AllTileFlags: 1073741825
  - first: {x: 1, y: -5, z: 0}
    second:
      serializedVersion: 2
      m_TileIndex: 82
      m_TileSpriteIndex: 82
      m_TileMatrixIndex: 0
      m_TileColorIndex: 0
      m_TileObjectToInstantiateIndex: 65535
      dummyAlignment: 0
      m_AllTileFlags: 1073741825
  - first: {x: 2, y: -5, z: 0}
    second:
      serializedVersion: 2
      m_TileIndex: 83
      m_TileSpriteIndex: 83
      m_TileMatrixIndex: 0
      m_TileColorIndex: 0
      m_TileObjectToInstantiateIndex: 65535
      dummyAlignment: 0
      m_AllTileFlags: 1073741825
  - first: {x: 3, y: -5, z: 0}
    second:
      serializedVersion: 2
      m_TileIndex: 84
      m_TileSpriteIndex: 84
      m_TileMatrixIndex: 0
      m_TileColorIndex: 0
      m_TileObjectToInstantiateIndex: 65535
      dummyAlignment: 0
      m_AllTileFlags: 1073741825
  - first: {x: 4, y: -5, z: 0}
    second:
      serializedVersion: 2
      m_TileIndex: 85
      m_TileSpriteIndex: 85
      m_TileMatrixIndex: 0
      m_TileColorIndex: 0
      m_TileObjectToInstantiateIndex: 65535
      dummyAlignment: 0
      m_AllTileFlags: 1073741825
  - first: {x: 5, y: -5, z: 0}
    second:
      serializedVersion: 2
      m_TileIndex: 86
      m_TileSpriteIndex: 86
      m_TileMatrixIndex: 0
      m_TileColorIndex: 0
      m_TileObjectToInstantiateIndex: 65535
      dummyAlignment: 0
      m_AllTileFlags: 1073741825
  - first: {x: 6, y: -5, z: 0}
    second:
      serializedVersion: 2
      m_TileIndex: 87
      m_TileSpriteIndex: 87
      m_TileMatrixIndex: 0
      m_TileColorIndex: 0
      m_TileObjectToInstantiateIndex: 65535
      dummyAlignment: 0
      m_AllTileFlags: 1073741825
  - first: {x: 7, y: -5, z: 0}
    second:
      serializedVersion: 2
      m_TileIndex: 88
      m_TileSpriteIndex: 88
      m_TileMatrixIndex: 0
      m_TileColorIndex: 0
      m_TileObjectToInstantiateIndex: 65535
      dummyAlignment: 0
      m_AllTileFlags: 1073741825
  - first: {x: 8, y: -5, z: 0}
    second:
      serializedVersion: 2
      m_TileIndex: 89
      m_TileSpriteIndex: 89
      m_TileMatrixIndex: 0
      m_TileColorIndex: 0
      m_TileObjectToInstantiateIndex: 65535
      dummyAlignment: 0
      m_AllTileFlags: 1073741825
  - first: {x: 9, y: -5, z: 0}
    second:
      serializedVersion: 2
      m_TileIndex: 90
      m_TileSpriteIndex: 90
      m_TileMatrixIndex: 0
      m_TileColorIndex: 0
      m_TileObjectToInstantiateIndex: 65535
      dummyAlignment: 0
      m_AllTileFlags: 1073741825
  - first: {x: 10, y: -5, z: 0}
    second:
      serializedVersion: 2
      m_TileIndex: 91
      m_TileSpriteIndex: 91
      m_TileMatrixIndex: 0
      m_TileColorIndex: 0
      m_TileObjectToInstantiateIndex: 65535
      dummyAlignment: 0
      m_AllTileFlags: 1073741825
  - first: {x: 11, y: -5, z: 0}
    second:
      serializedVersion: 2
      m_TileIndex: 92
      m_TileSpriteIndex: 92
      m_TileMatrixIndex: 0
      m_TileColorIndex: 0
      m_TileObjectToInstantiateIndex: 65535
      dummyAlignment: 0
      m_AllTileFlags: 1073741825
  - first: {x: 12, y: -5, z: 0}
    second:
      serializedVersion: 2
      m_TileIndex: 93
      m_TileSpriteIndex: 93
      m_TileMatrixIndex: 0
      m_TileColorIndex: 0
      m_TileObjectToInstantiateIndex: 65535
      dummyAlignment: 0
      m_AllTileFlags: 1073741825
  - first: {x: 13, y: -5, z: 0}
    second:
      serializedVersion: 2
      m_TileIndex: 94
      m_TileSpriteIndex: 94
      m_TileMatrixIndex: 0
      m_TileColorIndex: 0
      m_TileObjectToInstantiateIndex: 65535
      dummyAlignment: 0
      m_AllTileFlags: 1073741825
  - first: {x: 14, y: -5, z: 0}
    second:
      serializedVersion: 2
      m_TileIndex: 95
      m_TileSpriteIndex: 95
      m_TileMatrixIndex: 0
      m_TileColorIndex: 0
      m_TileObjectToInstantiateIndex: 65535
      dummyAlignment: 0
      m_AllTileFlags: 1073741825
  - first: {x: -1, y: -4, z: 0}
    second:
      serializedVersion: 2
      m_TileIndex: 64
      m_TileSpriteIndex: 64
      m_TileMatrixIndex: 0
      m_TileColorIndex: 0
      m_TileObjectToInstantiateIndex: 65535
      dummyAlignment: 0
      m_AllTileFlags: 1073741825
  - first: {x: 0, y: -4, z: 0}
    second:
      serializedVersion: 2
      m_TileIndex: 65
      m_TileSpriteIndex: 65
      m_TileMatrixIndex: 0
      m_TileColorIndex: 0
      m_TileObjectToInstantiateIndex: 65535
      dummyAlignment: 0
      m_AllTileFlags: 1073741825
  - first: {x: 1, y: -4, z: 0}
    second:
      serializedVersion: 2
      m_TileIndex: 66
      m_TileSpriteIndex: 66
      m_TileMatrixIndex: 0
      m_TileColorIndex: 0
      m_TileObjectToInstantiateIndex: 65535
      dummyAlignment: 0
      m_AllTileFlags: 1073741825
  - first: {x: 2, y: -4, z: 0}
    second:
      serializedVersion: 2
      m_TileIndex: 67
      m_TileSpriteIndex: 67
      m_TileMatrixIndex: 0
      m_TileColorIndex: 0
      m_TileObjectToInstantiateIndex: 65535
      dummyAlignment: 0
      m_AllTileFlags: 1073741825
  - first: {x: 3, y: -4, z: 0}
    second:
      serializedVersion: 2
      m_TileIndex: 68
      m_TileSpriteIndex: 68
      m_TileMatrixIndex: 0
      m_TileColorIndex: 0
      m_TileObjectToInstantiateIndex: 65535
      dummyAlignment: 0
      m_AllTileFlags: 1073741825
  - first: {x: 4, y: -4, z: 0}
    second:
      serializedVersion: 2
      m_TileIndex: 69
      m_TileSpriteIndex: 69
      m_TileMatrixIndex: 0
      m_TileColorIndex: 0
      m_TileObjectToInstantiateIndex: 65535
      dummyAlignment: 0
      m_AllTileFlags: 1073741825
  - first: {x: 5, y: -4, z: 0}
    second:
      serializedVersion: 2
      m_TileIndex: 70
      m_TileSpriteIndex: 70
      m_TileMatrixIndex: 0
      m_TileColorIndex: 0
      m_TileObjectToInstantiateIndex: 65535
      dummyAlignment: 0
      m_AllTileFlags: 1073741825
  - first: {x: 6, y: -4, z: 0}
    second:
      serializedVersion: 2
      m_TileIndex: 71
      m_TileSpriteIndex: 71
      m_TileMatrixIndex: 0
      m_TileColorIndex: 0
      m_TileObjectToInstantiateIndex: 65535
      dummyAlignment: 0
      m_AllTileFlags: 1073741825
  - first: {x: 7, y: -4, z: 0}
    second:
      serializedVersion: 2
      m_TileIndex: 72
      m_TileSpriteIndex: 72
      m_TileMatrixIndex: 0
      m_TileColorIndex: 0
      m_TileObjectToInstantiateIndex: 65535
      dummyAlignment: 0
      m_AllTileFlags: 1073741825
  - first: {x: 8, y: -4, z: 0}
    second:
      serializedVersion: 2
      m_TileIndex: 73
      m_TileSpriteIndex: 73
      m_TileMatrixIndex: 0
      m_TileColorIndex: 0
      m_TileObjectToInstantiateIndex: 65535
      dummyAlignment: 0
      m_AllTileFlags: 1073741825
  - first: {x: 9, y: -4, z: 0}
    second:
      serializedVersion: 2
      m_TileIndex: 74
      m_TileSpriteIndex: 74
      m_TileMatrixIndex: 0
      m_TileColorIndex: 0
      m_TileObjectToInstantiateIndex: 65535
      dummyAlignment: 0
      m_AllTileFlags: 1073741825
  - first: {x: 10, y: -4, z: 0}
    second:
      serializedVersion: 2
      m_TileIndex: 75
      m_TileSpriteIndex: 75
      m_TileMatrixIndex: 0
      m_TileColorIndex: 0
      m_TileObjectToInstantiateIndex: 65535
      dummyAlignment: 0
      m_AllTileFlags: 1073741825
  - first: {x: 11, y: -4, z: 0}
    second:
      serializedVersion: 2
      m_TileIndex: 76
      m_TileSpriteIndex: 76
      m_TileMatrixIndex: 0
      m_TileColorIndex: 0
      m_TileObjectToInstantiateIndex: 65535
      dummyAlignment: 0
      m_AllTileFlags: 1073741825
  - first: {x: 12, y: -4, z: 0}
    second:
      serializedVersion: 2
      m_TileIndex: 77
      m_TileSpriteIndex: 77
      m_TileMatrixIndex: 0
      m_TileColorIndex: 0
      m_TileObjectToInstantiateIndex: 65535
      dummyAlignment: 0
      m_AllTileFlags: 1073741825
  - first: {x: 13, y: -4, z: 0}
    second:
      serializedVersion: 2
      m_TileIndex: 78
      m_TileSpriteIndex: 78
      m_TileMatrixIndex: 0
      m_TileColorIndex: 0
      m_TileObjectToInstantiateIndex: 65535
      dummyAlignment: 0
      m_AllTileFlags: 1073741825
  - first: {x: 14, y: -4, z: 0}
    second:
      serializedVersion: 2
      m_TileIndex: 79
      m_TileSpriteIndex: 79
      m_TileMatrixIndex: 0
      m_TileColorIndex: 0
      m_TileObjectToInstantiateIndex: 65535
      dummyAlignment: 0
      m_AllTileFlags: 1073741825
  - first: {x: -1, y: -3, z: 0}
    second:
      serializedVersion: 2
      m_TileIndex: 48
      m_TileSpriteIndex: 48
      m_TileMatrixIndex: 0
      m_TileColorIndex: 0
      m_TileObjectToInstantiateIndex: 65535
      dummyAlignment: 0
      m_AllTileFlags: 1073741825
  - first: {x: 0, y: -3, z: 0}
    second:
      serializedVersion: 2
      m_TileIndex: 49
      m_TileSpriteIndex: 49
      m_TileMatrixIndex: 0
      m_TileColorIndex: 0
      m_TileObjectToInstantiateIndex: 65535
      dummyAlignment: 0
      m_AllTileFlags: 1073741825
  - first: {x: 1, y: -3, z: 0}
    second:
      serializedVersion: 2
      m_TileIndex: 50
      m_TileSpriteIndex: 50
      m_TileMatrixIndex: 0
      m_TileColorIndex: 0
      m_TileObjectToInstantiateIndex: 65535
      dummyAlignment: 0
      m_AllTileFlags: 1073741825
  - first: {x: 2, y: -3, z: 0}
    second:
      serializedVersion: 2
      m_TileIndex: 51
      m_TileSpriteIndex: 51
      m_TileMatrixIndex: 0
      m_TileColorIndex: 0
      m_TileObjectToInstantiateIndex: 65535
      dummyAlignment: 0
      m_AllTileFlags: 1073741825
  - first: {x: 3, y: -3, z: 0}
    second:
      serializedVersion: 2
      m_TileIndex: 52
      m_TileSpriteIndex: 52
      m_TileMatrixIndex: 0
      m_TileColorIndex: 0
      m_TileObjectToInstantiateIndex: 65535
      dummyAlignment: 0
      m_AllTileFlags: 1073741825
  - first: {x: 4, y: -3, z: 0}
    second:
      serializedVersion: 2
      m_TileIndex: 53
      m_TileSpriteIndex: 53
      m_TileMatrixIndex: 0
      m_TileColorIndex: 0
      m_TileObjectToInstantiateIndex: 65535
      dummyAlignment: 0
      m_AllTileFlags: 1073741825
  - first: {x: 5, y: -3, z: 0}
    second:
      serializedVersion: 2
      m_TileIndex: 54
      m_TileSpriteIndex: 54
      m_TileMatrixIndex: 0
      m_TileColorIndex: 0
      m_TileObjectToInstantiateIndex: 65535
      dummyAlignment: 0
      m_AllTileFlags: 1073741825
  - first: {x: 6, y: -3, z: 0}
    second:
      serializedVersion: 2
      m_TileIndex: 55
      m_TileSpriteIndex: 55
      m_TileMatrixIndex: 0
      m_TileColorIndex: 0
      m_TileObjectToInstantiateIndex: 65535
      dummyAlignment: 0
      m_AllTileFlags: 1073741825
  - first: {x: 7, y: -3, z: 0}
    second:
      serializedVersion: 2
      m_TileIndex: 56
      m_TileSpriteIndex: 56
      m_TileMatrixIndex: 0
      m_TileColorIndex: 0
      m_TileObjectToInstantiateIndex: 65535
      dummyAlignment: 0
      m_AllTileFlags: 1073741825
  - first: {x: 8, y: -3, z: 0}
    second:
      serializedVersion: 2
      m_TileIndex: 57
      m_TileSpriteIndex: 57
      m_TileMatrixIndex: 0
      m_TileColorIndex: 0
      m_TileObjectToInstantiateIndex: 65535
      dummyAlignment: 0
      m_AllTileFlags: 1073741825
  - first: {x: 9, y: -3, z: 0}
    second:
      serializedVersion: 2
      m_TileIndex: 58
      m_TileSpriteIndex: 58
      m_TileMatrixIndex: 0
      m_TileColorIndex: 0
      m_TileObjectToInstantiateIndex: 65535
      dummyAlignment: 0
      m_AllTileFlags: 1073741825
  - first: {x: 10, y: -3, z: 0}
    second:
      serializedVersion: 2
      m_TileIndex: 59
      m_TileSpriteIndex: 59
      m_TileMatrixIndex: 0
      m_TileColorIndex: 0
      m_TileObjectToInstantiateIndex: 65535
      dummyAlignment: 0
      m_AllTileFlags: 1073741825
  - first: {x: 11, y: -3, z: 0}
    second:
      serializedVersion: 2
      m_TileIndex: 60
      m_TileSpriteIndex: 60
      m_TileMatrixIndex: 0
      m_TileColorIndex: 0
      m_TileObjectToInstantiateIndex: 65535
      dummyAlignment: 0
      m_AllTileFlags: 1073741825
  - first: {x: 12, y: -3, z: 0}
    second:
      serializedVersion: 2
      m_TileIndex: 61
      m_TileSpriteIndex: 61
      m_TileMatrixIndex: 0
      m_TileColorIndex: 0
      m_TileObjectToInstantiateIndex: 65535
      dummyAlignment: 0
      m_AllTileFlags: 1073741825
  - first: {x: 13, y: -3, z: 0}
    second:
      serializedVersion: 2
      m_TileIndex: 62
      m_TileSpriteIndex: 62
      m_TileMatrixIndex: 0
      m_TileColorIndex: 0
      m_TileObjectToInstantiateIndex: 65535
      dummyAlignment: 0
      m_AllTileFlags: 1073741825
  - first: {x: 14, y: -3, z: 0}
    second:
      serializedVersion: 2
      m_TileIndex: 63
      m_TileSpriteIndex: 63
      m_TileMatrixIndex: 0
      m_TileColorIndex: 0
      m_TileObjectToInstantiateIndex: 65535
      dummyAlignment: 0
      m_AllTileFlags: 1073741825
  - first: {x: -1, y: -2, z: 0}
    second:
      serializedVersion: 2
      m_TileIndex: 32
      m_TileSpriteIndex: 32
      m_TileMatrixIndex: 0
      m_TileColorIndex: 0
      m_TileObjectToInstantiateIndex: 65535
      dummyAlignment: 0
      m_AllTileFlags: 1073741825
  - first: {x: 0, y: -2, z: 0}
    second:
      serializedVersion: 2
      m_TileIndex: 33
      m_TileSpriteIndex: 33
      m_TileMatrixIndex: 0
      m_TileColorIndex: 0
      m_TileObjectToInstantiateIndex: 65535
      dummyAlignment: 0
      m_AllTileFlags: 1073741825
  - first: {x: 1, y: -2, z: 0}
    second:
      serializedVersion: 2
      m_TileIndex: 34
      m_TileSpriteIndex: 34
      m_TileMatrixIndex: 0
      m_TileColorIndex: 0
      m_TileObjectToInstantiateIndex: 65535
      dummyAlignment: 0
      m_AllTileFlags: 1073741825
  - first: {x: 2, y: -2, z: 0}
    second:
      serializedVersion: 2
      m_TileIndex: 35
      m_TileSpriteIndex: 35
      m_TileMatrixIndex: 0
      m_TileColorIndex: 0
      m_TileObjectToInstantiateIndex: 65535
      dummyAlignment: 0
      m_AllTileFlags: 1073741825
  - first: {x: 3, y: -2, z: 0}
    second:
      serializedVersion: 2
      m_TileIndex: 36
      m_TileSpriteIndex: 36
      m_TileMatrixIndex: 0
      m_TileColorIndex: 0
      m_TileObjectToInstantiateIndex: 65535
      dummyAlignment: 0
      m_AllTileFlags: 1073741825
  - first: {x: 4, y: -2, z: 0}
    second:
      serializedVersion: 2
      m_TileIndex: 37
      m_TileSpriteIndex: 37
      m_TileMatrixIndex: 0
      m_TileColorIndex: 0
      m_TileObjectToInstantiateIndex: 65535
      dummyAlignment: 0
      m_AllTileFlags: 1073741825
  - first: {x: 5, y: -2, z: 0}
    second:
      serializedVersion: 2
      m_TileIndex: 38
      m_TileSpriteIndex: 38
      m_TileMatrixIndex: 0
      m_TileColorIndex: 0
      m_TileObjectToInstantiateIndex: 65535
      dummyAlignment: 0
      m_AllTileFlags: 1073741825
  - first: {x: 6, y: -2, z: 0}
    second:
      serializedVersion: 2
      m_TileIndex: 39
      m_TileSpriteIndex: 39
      m_TileMatrixIndex: 0
      m_TileColorIndex: 0
      m_TileObjectToInstantiateIndex: 65535
      dummyAlignment: 0
      m_AllTileFlags: 1073741825
  - first: {x: 7, y: -2, z: 0}
    second:
      serializedVersion: 2
      m_TileIndex: 40
      m_TileSpriteIndex: 40
      m_TileMatrixIndex: 0
      m_TileColorIndex: 0
      m_TileObjectToInstantiateIndex: 65535
      dummyAlignment: 0
      m_AllTileFlags: 1073741825
  - first: {x: 8, y: -2, z: 0}
    second:
      serializedVersion: 2
      m_TileIndex: 41
      m_TileSpriteIndex: 41
      m_TileMatrixIndex: 0
      m_TileColorIndex: 0
      m_TileObjectToInstantiateIndex: 65535
      dummyAlignment: 0
      m_AllTileFlags: 1073741825
  - first: {x: 9, y: -2, z: 0}
    second:
      serializedVersion: 2
      m_TileIndex: 42
      m_TileSpriteIndex: 42
      m_TileMatrixIndex: 0
      m_TileColorIndex: 0
      m_TileObjectToInstantiateIndex: 65535
      dummyAlignment: 0
      m_AllTileFlags: 1073741825
  - first: {x: 10, y: -2, z: 0}
    second:
      serializedVersion: 2
      m_TileIndex: 43
      m_TileSpriteIndex: 43
      m_TileMatrixIndex: 0
      m_TileColorIndex: 0
      m_TileObjectToInstantiateIndex: 65535
      dummyAlignment: 0
      m_AllTileFlags: 1073741825
  - first: {x: 11, y: -2, z: 0}
    second:
      serializedVersion: 2
      m_TileIndex: 44
      m_TileSpriteIndex: 44
      m_TileMatrixIndex: 0
      m_TileColorIndex: 0
      m_TileObjectToInstantiateIndex: 65535
      dummyAlignment: 0
      m_AllTileFlags: 1073741825
  - first: {x: 12, y: -2, z: 0}
    second:
      serializedVersion: 2
      m_TileIndex: 45
      m_TileSpriteIndex: 45
      m_TileMatrixIndex: 0
      m_TileColorIndex: 0
      m_TileObjectToInstantiateIndex: 65535
      dummyAlignment: 0
      m_AllTileFlags: 1073741825
  - first: {x: 13, y: -2, z: 0}
    second:
      serializedVersion: 2
      m_TileIndex: 46
      m_TileSpriteIndex: 46
      m_TileMatrixIndex: 0
      m_TileColorIndex: 0
      m_TileObjectToInstantiateIndex: 65535
      dummyAlignment: 0
      m_AllTileFlags: 1073741825
  - first: {x: 14, y: -2, z: 0}
    second:
      serializedVersion: 2
      m_TileIndex: 47
      m_TileSpriteIndex: 47
      m_TileMatrixIndex: 0
      m_TileColorIndex: 0
      m_TileObjectToInstantiateIndex: 65535
      dummyAlignment: 0
      m_AllTileFlags: 1073741825
  - first: {x: -1, y: -1, z: 0}
    second:
      serializedVersion: 2
      m_TileIndex: 16
      m_TileSpriteIndex: 16
      m_TileMatrixIndex: 0
      m_TileColorIndex: 0
      m_TileObjectToInstantiateIndex: 65535
      dummyAlignment: 0
      m_AllTileFlags: 1073741825
  - first: {x: 0, y: -1, z: 0}
    second:
      serializedVersion: 2
      m_TileIndex: 17
      m_TileSpriteIndex: 17
      m_TileMatrixIndex: 0
      m_TileColorIndex: 0
      m_TileObjectToInstantiateIndex: 65535
      dummyAlignment: 0
      m_AllTileFlags: 1073741825
  - first: {x: 1, y: -1, z: 0}
    second:
      serializedVersion: 2
      m_TileIndex: 18
      m_TileSpriteIndex: 18
      m_TileMatrixIndex: 0
      m_TileColorIndex: 0
      m_TileObjectToInstantiateIndex: 65535
      dummyAlignment: 0
      m_AllTileFlags: 1073741825
  - first: {x: 2, y: -1, z: 0}
    second:
      serializedVersion: 2
      m_TileIndex: 19
      m_TileSpriteIndex: 19
      m_TileMatrixIndex: 0
      m_TileColorIndex: 0
      m_TileObjectToInstantiateIndex: 65535
      dummyAlignment: 0
      m_AllTileFlags: 1073741825
  - first: {x: 3, y: -1, z: 0}
    second:
      serializedVersion: 2
      m_TileIndex: 20
      m_TileSpriteIndex: 20
      m_TileMatrixIndex: 0
      m_TileColorIndex: 0
      m_TileObjectToInstantiateIndex: 65535
      dummyAlignment: 0
      m_AllTileFlags: 1073741825
  - first: {x: 4, y: -1, z: 0}
    second:
      serializedVersion: 2
      m_TileIndex: 21
      m_TileSpriteIndex: 21
      m_TileMatrixIndex: 0
      m_TileColorIndex: 0
      m_TileObjectToInstantiateIndex: 65535
      dummyAlignment: 0
      m_AllTileFlags: 1073741825
  - first: {x: 5, y: -1, z: 0}
    second:
      serializedVersion: 2
      m_TileIndex: 22
      m_TileSpriteIndex: 22
      m_TileMatrixIndex: 0
      m_TileColorIndex: 0
      m_TileObjectToInstantiateIndex: 65535
      dummyAlignment: 0
      m_AllTileFlags: 1073741825
  - first: {x: 6, y: -1, z: 0}
    second:
      serializedVersion: 2
      m_TileIndex: 23
      m_TileSpriteIndex: 23
      m_TileMatrixIndex: 0
      m_TileColorIndex: 0
      m_TileObjectToInstantiateIndex: 65535
      dummyAlignment: 0
      m_AllTileFlags: 1073741825
  - first: {x: 7, y: -1, z: 0}
    second:
      serializedVersion: 2
      m_TileIndex: 24
      m_TileSpriteIndex: 24
      m_TileMatrixIndex: 0
      m_TileColorIndex: 0
      m_TileObjectToInstantiateIndex: 65535
      dummyAlignment: 0
      m_AllTileFlags: 1073741825
  - first: {x: 8, y: -1, z: 0}
    second:
      serializedVersion: 2
      m_TileIndex: 25
      m_TileSpriteIndex: 25
      m_TileMatrixIndex: 0
      m_TileColorIndex: 0
      m_TileObjectToInstantiateIndex: 65535
      dummyAlignment: 0
      m_AllTileFlags: 1073741825
  - first: {x: 9, y: -1, z: 0}
    second:
      serializedVersion: 2
      m_TileIndex: 26
      m_TileSpriteIndex: 26
      m_TileMatrixIndex: 0
      m_TileColorIndex: 0
      m_TileObjectToInstantiateIndex: 65535
      dummyAlignment: 0
      m_AllTileFlags: 1073741825
  - first: {x: 10, y: -1, z: 0}
    second:
      serializedVersion: 2
      m_TileIndex: 27
      m_TileSpriteIndex: 27
      m_TileMatrixIndex: 0
      m_TileColorIndex: 0
      m_TileObjectToInstantiateIndex: 65535
      dummyAlignment: 0
      m_AllTileFlags: 1073741825
  - first: {x: 11, y: -1, z: 0}
    second:
      serializedVersion: 2
      m_TileIndex: 28
      m_TileSpriteIndex: 28
      m_TileMatrixIndex: 0
      m_TileColorIndex: 0
      m_TileObjectToInstantiateIndex: 65535
      dummyAlignment: 0
      m_AllTileFlags: 1073741825
  - first: {x: 12, y: -1, z: 0}
    second:
      serializedVersion: 2
      m_TileIndex: 29
      m_TileSpriteIndex: 29
      m_TileMatrixIndex: 0
      m_TileColorIndex: 0
      m_TileObjectToInstantiateIndex: 65535
      dummyAlignment: 0
      m_AllTileFlags: 1073741825
  - first: {x: 13, y: -1, z: 0}
    second:
      serializedVersion: 2
      m_TileIndex: 30
      m_TileSpriteIndex: 30
      m_TileMatrixIndex: 0
      m_TileColorIndex: 0
      m_TileObjectToInstantiateIndex: 65535
      dummyAlignment: 0
      m_AllTileFlags: 1073741825
  - first: {x: 14, y: -1, z: 0}
    second:
      serializedVersion: 2
      m_TileIndex: 31
      m_TileSpriteIndex: 31
      m_TileMatrixIndex: 0
      m_TileColorIndex: 0
      m_TileObjectToInstantiateIndex: 65535
      dummyAlignment: 0
      m_AllTileFlags: 1073741825
  - first: {x: -1, y: 0, z: 0}
    second:
      serializedVersion: 2
      m_TileIndex: 0
      m_TileSpriteIndex: 0
      m_TileMatrixIndex: 0
      m_TileColorIndex: 0
      m_TileObjectToInstantiateIndex: 65535
      dummyAlignment: 0
      m_AllTileFlags: 1073741825
  - first: {x: 0, y: 0, z: 0}
    second:
      serializedVersion: 2
      m_TileIndex: 1
      m_TileSpriteIndex: 1
      m_TileMatrixIndex: 0
      m_TileColorIndex: 0
      m_TileObjectToInstantiateIndex: 65535
      dummyAlignment: 0
      m_AllTileFlags: 1073741825
  - first: {x: 1, y: 0, z: 0}
    second:
      serializedVersion: 2
      m_TileIndex: 2
      m_TileSpriteIndex: 2
      m_TileMatrixIndex: 0
      m_TileColorIndex: 0
      m_TileObjectToInstantiateIndex: 65535
      dummyAlignment: 0
      m_AllTileFlags: 1073741825
  - first: {x: 2, y: 0, z: 0}
    second:
      serializedVersion: 2
      m_TileIndex: 3
      m_TileSpriteIndex: 3
      m_TileMatrixIndex: 0
      m_TileColorIndex: 0
      m_TileObjectToInstantiateIndex: 65535
      dummyAlignment: 0
      m_AllTileFlags: 1073741825
  - first: {x: 3, y: 0, z: 0}
    second:
      serializedVersion: 2
      m_TileIndex: 4
      m_TileSpriteIndex: 4
      m_TileMatrixIndex: 0
      m_TileColorIndex: 0
      m_TileObjectToInstantiateIndex: 65535
      dummyAlignment: 0
      m_AllTileFlags: 1073741825
  - first: {x: 4, y: 0, z: 0}
    second:
      serializedVersion: 2
      m_TileIndex: 5
      m_TileSpriteIndex: 5
      m_TileMatrixIndex: 0
      m_TileColorIndex: 0
      m_TileObjectToInstantiateIndex: 65535
      dummyAlignment: 0
      m_AllTileFlags: 1073741825
  - first: {x: 5, y: 0, z: 0}
    second:
      serializedVersion: 2
      m_TileIndex: 6
      m_TileSpriteIndex: 6
      m_TileMatrixIndex: 0
      m_TileColorIndex: 0
      m_TileObjectToInstantiateIndex: 65535
      dummyAlignment: 0
      m_AllTileFlags: 1073741825
  - first: {x: 6, y: 0, z: 0}
    second:
      serializedVersion: 2
      m_TileIndex: 7
      m_TileSpriteIndex: 7
      m_TileMatrixIndex: 0
      m_TileColorIndex: 0
      m_TileObjectToInstantiateIndex: 65535
      dummyAlignment: 0
      m_AllTileFlags: 1073741825
  - first: {x: 7, y: 0, z: 0}
    second:
      serializedVersion: 2
      m_TileIndex: 8
      m_TileSpriteIndex: 8
      m_TileMatrixIndex: 0
      m_TileColorIndex: 0
      m_TileObjectToInstantiateIndex: 65535
      dummyAlignment: 0
      m_AllTileFlags: 1073741825
  - first: {x: 8, y: 0, z: 0}
    second:
      serializedVersion: 2
      m_TileIndex: 9
      m_TileSpriteIndex: 9
      m_TileMatrixIndex: 0
      m_TileColorIndex: 0
      m_TileObjectToInstantiateIndex: 65535
      dummyAlignment: 0
      m_AllTileFlags: 1073741825
  - first: {x: 9, y: 0, z: 0}
    second:
      serializedVersion: 2
      m_TileIndex: 10
      m_TileSpriteIndex: 10
      m_TileMatrixIndex: 0
      m_TileColorIndex: 0
      m_TileObjectToInstantiateIndex: 65535
      dummyAlignment: 0
      m_AllTileFlags: 1073741825
  - first: {x: 10, y: 0, z: 0}
    second:
      serializedVersion: 2
      m_TileIndex: 11
      m_TileSpriteIndex: 11
      m_TileMatrixIndex: 0
      m_TileColorIndex: 0
      m_TileObjectToInstantiateIndex: 65535
      dummyAlignment: 0
      m_AllTileFlags: 1073741825
  - first: {x: 11, y: 0, z: 0}
    second:
      serializedVersion: 2
      m_TileIndex: 12
      m_TileSpriteIndex: 12
      m_TileMatrixIndex: 0
      m_TileColorIndex: 0
      m_TileObjectToInstantiateIndex: 65535
      dummyAlignment: 0
      m_AllTileFlags: 1073741825
  - first: {x: 12, y: 0, z: 0}
    second:
      serializedVersion: 2
      m_TileIndex: 13
      m_TileSpriteIndex: 13
      m_TileMatrixIndex: 0
      m_TileColorIndex: 0
      m_TileObjectToInstantiateIndex: 65535
      dummyAlignment: 0
      m_AllTileFlags: 1073741825
  - first: {x: 13, y: 0, z: 0}
    second:
      serializedVersion: 2
      m_TileIndex: 14
      m_TileSpriteIndex: 14
      m_TileMatrixIndex: 0
      m_TileColorIndex: 0
      m_TileObjectToInstantiateIndex: 65535
      dummyAlignment: 0
      m_AllTileFlags: 1073741825
  - first: {x: 14, y: 0, z: 0}
    second:
      serializedVersion: 2
      m_TileIndex: 15
      m_TileSpriteIndex: 15
      m_TileMatrixIndex: 0
      m_TileColorIndex: 0
      m_TileObjectToInstantiateIndex: 65535
      dummyAlignment: 0
      m_AllTileFlags: 1073741825
  m_AnimatedTiles: {}
  m_TileAssetArray:
  - m_RefCount: 1
    m_Data: {fileID: 11400000, guid: 778969772e122ec4faa47d4c4b6f5c53, type: 2}
  - m_RefCount: 1
    m_Data: {fileID: 11400000, guid: 5dbcc45acc1bf7c47884da9d72da1006, type: 2}
  - m_RefCount: 1
    m_Data: {fileID: 11400000, guid: 053a6d34f22c3a9488c5bb5b24de8834, type: 2}
  - m_RefCount: 1
    m_Data: {fileID: 11400000, guid: fabe8a735a5ad7644bbfb962a28c3da8, type: 2}
  - m_RefCount: 1
    m_Data: {fileID: 11400000, guid: eae2bd8b55b2a4241b38502947a854fc, type: 2}
  - m_RefCount: 1
    m_Data: {fileID: 11400000, guid: c501e752cad173e4e967d0543f6137f0, type: 2}
  - m_RefCount: 1
    m_Data: {fileID: 11400000, guid: 03e93df3cf1ba964abc2440aee900fb3, type: 2}
  - m_RefCount: 1
    m_Data: {fileID: 11400000, guid: 108c10e03201c0f4991440b0a1d53aa9, type: 2}
  - m_RefCount: 1
    m_Data: {fileID: 11400000, guid: 8157040be7821ae40b7b92203f66b705, type: 2}
  - m_RefCount: 1
    m_Data: {fileID: 11400000, guid: 65b78336e64f34f4ea57da58e4556db4, type: 2}
  - m_RefCount: 1
    m_Data: {fileID: 11400000, guid: 962d44d92f7acef4bb973a3d248375fc, type: 2}
  - m_RefCount: 1
    m_Data: {fileID: 11400000, guid: 1aee77f84e2572e4d8ec1f955022febe, type: 2}
  - m_RefCount: 1
    m_Data: {fileID: 11400000, guid: 7c520f520b5e5b444a6d38c09973185e, type: 2}
  - m_RefCount: 1
    m_Data: {fileID: 11400000, guid: 0d1aade3726bda247b601ff915d8176a, type: 2}
  - m_RefCount: 1
    m_Data: {fileID: 11400000, guid: 01936b4ff997d9a4ca4017013c3c6be6, type: 2}
  - m_RefCount: 1
    m_Data: {fileID: 11400000, guid: 43bc5862443e7e646aba1bbcc6871097, type: 2}
  - m_RefCount: 1
    m_Data: {fileID: 11400000, guid: 7ffa93afa25ad504aa8af6fded02aa53, type: 2}
  - m_RefCount: 1
    m_Data: {fileID: 11400000, guid: 99e2f3d250675444aad93d42a62c806a, type: 2}
  - m_RefCount: 1
    m_Data: {fileID: 11400000, guid: adb4ce8e04c48fc4896012562657b279, type: 2}
  - m_RefCount: 1
    m_Data: {fileID: 11400000, guid: 6a043583eb8f9cd449b6c6c830b6457a, type: 2}
  - m_RefCount: 1
    m_Data: {fileID: 11400000, guid: 9deea0fd54d24f8439dabe6875774438, type: 2}
  - m_RefCount: 1
    m_Data: {fileID: 11400000, guid: e6614bb84d7678249826a51ff4156892, type: 2}
  - m_RefCount: 1
    m_Data: {fileID: 11400000, guid: 1c1d0d9f3f02dd54cb72d2e1e4b21b0d, type: 2}
  - m_RefCount: 1
    m_Data: {fileID: 11400000, guid: 20c96b601e0f61c4787fde777c8b30f6, type: 2}
  - m_RefCount: 1
    m_Data: {fileID: 11400000, guid: d15f78c046cee044da3cb83acc241a7a, type: 2}
  - m_RefCount: 1
    m_Data: {fileID: 11400000, guid: aa9a8e8816bbf554ba541120d899c2bf, type: 2}
  - m_RefCount: 1
    m_Data: {fileID: 11400000, guid: f098b7cb308a80c4ea4607edcdf22243, type: 2}
  - m_RefCount: 1
    m_Data: {fileID: 11400000, guid: 1872e8c9e02767544bef1acba9c9caa0, type: 2}
  - m_RefCount: 1
    m_Data: {fileID: 11400000, guid: e975c0eba1be52340a1d93cbb1186004, type: 2}
  - m_RefCount: 1
    m_Data: {fileID: 11400000, guid: 88ad3365742e2f942954ab5825d00887, type: 2}
  - m_RefCount: 1
    m_Data: {fileID: 11400000, guid: acb631cdbeba7f64ab7e9f239c0a0670, type: 2}
  - m_RefCount: 1
    m_Data: {fileID: 11400000, guid: 7a25fdb661f4d104bbde73b0280fd55c, type: 2}
  - m_RefCount: 1
    m_Data: {fileID: 11400000, guid: 15701c961a95769449e91036866f3f13, type: 2}
  - m_RefCount: 1
    m_Data: {fileID: 11400000, guid: f503489c0815cf84c80c60130eb3318a, type: 2}
  - m_RefCount: 1
    m_Data: {fileID: 11400000, guid: a4682152a0c244b42ba39bd45f201032, type: 2}
  - m_RefCount: 1
    m_Data: {fileID: 11400000, guid: 92bdecf15b573944d904ace8c58b93d8, type: 2}
  - m_RefCount: 1
    m_Data: {fileID: 11400000, guid: 056fb4929d3dfa0428fcc3739dcfa700, type: 2}
  - m_RefCount: 1
    m_Data: {fileID: 11400000, guid: df998160cf5e57f4d9691b8da7bd548a, type: 2}
  - m_RefCount: 1
    m_Data: {fileID: 11400000, guid: 7125d050aa5a0bd469279119b41f2921, type: 2}
  - m_RefCount: 1
    m_Data: {fileID: 11400000, guid: 0301d8b650b2de94cb1f050533b75e58, type: 2}
  - m_RefCount: 1
    m_Data: {fileID: 11400000, guid: 34a39b664eba6e641b90aa3fcd6ac0fa, type: 2}
  - m_RefCount: 1
    m_Data: {fileID: 11400000, guid: 1a794d921947d1642a21025f646290bb, type: 2}
  - m_RefCount: 1
    m_Data: {fileID: 11400000, guid: 240ff5b38d2d7674bab51698a0e9d343, type: 2}
  - m_RefCount: 1
    m_Data: {fileID: 11400000, guid: 3cc8e30198baaac4d8bb2d3517619a5f, type: 2}
  - m_RefCount: 1
    m_Data: {fileID: 11400000, guid: ad01b02451f2f424c9050ae282db5d45, type: 2}
  - m_RefCount: 1
    m_Data: {fileID: 11400000, guid: 1f12078ab43e4884f8748e539b9a989b, type: 2}
  - m_RefCount: 1
    m_Data: {fileID: 11400000, guid: c72d8573c5faa824ebac45601c47623c, type: 2}
  - m_RefCount: 1
    m_Data: {fileID: 11400000, guid: 75303b32cbd39874d8549e0c9983fd46, type: 2}
  - m_RefCount: 1
    m_Data: {fileID: 11400000, guid: 737801c670ca4e74bacaf277f8fdda77, type: 2}
  - m_RefCount: 1
    m_Data: {fileID: 11400000, guid: 922067ef43b65814d93f49ad1bd1c779, type: 2}
  - m_RefCount: 1
    m_Data: {fileID: 11400000, guid: a46b36ac09e98cd4ba6fe78e3c9219ec, type: 2}
  - m_RefCount: 1
    m_Data: {fileID: 11400000, guid: 63a94c95a7cca6b4bb2bc266684ec319, type: 2}
  - m_RefCount: 1
    m_Data: {fileID: 11400000, guid: 21ec5f8f66b813a458f9b246dfc57ec7, type: 2}
  - m_RefCount: 1
    m_Data: {fileID: 11400000, guid: d49ada260121bbc4ab14c224fc7e43c7, type: 2}
  - m_RefCount: 1
    m_Data: {fileID: 11400000, guid: 9bf6cf3655d01b7499eab698583d0fa3, type: 2}
  - m_RefCount: 1
    m_Data: {fileID: 11400000, guid: 57a8d939cd57b4d4ba4a1e0ea205e48d, type: 2}
  - m_RefCount: 1
    m_Data: {fileID: 11400000, guid: bafb71de10852454f9e99665f5ec53bd, type: 2}
  - m_RefCount: 1
    m_Data: {fileID: 11400000, guid: 29aa613b1ddb5344ba48477a98fce19a, type: 2}
  - m_RefCount: 1
    m_Data: {fileID: 11400000, guid: 705efdc93cb2d474aaa48fdb2f942d10, type: 2}
  - m_RefCount: 1
    m_Data: {fileID: 11400000, guid: 4f36f29796255c84e9ca67c884e1a4d0, type: 2}
  - m_RefCount: 1
    m_Data: {fileID: 11400000, guid: 9f553eb4f2ab91f448ae047c877aa208, type: 2}
  - m_RefCount: 1
    m_Data: {fileID: 11400000, guid: e063c3a1a8e482c48aa1dfad54324ef4, type: 2}
  - m_RefCount: 1
    m_Data: {fileID: 11400000, guid: 1a8007d4744a54e44b09f33e102c1972, type: 2}
  - m_RefCount: 1
    m_Data: {fileID: 11400000, guid: 061ce4ea1b6400247996dbe536f12b67, type: 2}
  - m_RefCount: 1
    m_Data: {fileID: 11400000, guid: fae78a5d2d503064fa1123008d4a00e5, type: 2}
  - m_RefCount: 1
    m_Data: {fileID: 11400000, guid: a7cebaec331541746af291bcbcb33d7b, type: 2}
  - m_RefCount: 1
    m_Data: {fileID: 11400000, guid: 09b2bba0db466134ca89dc87ed758100, type: 2}
  - m_RefCount: 1
    m_Data: {fileID: 11400000, guid: ba0167e0a95ae3c4aad1c47c0dfa6a1b, type: 2}
  - m_RefCount: 1
    m_Data: {fileID: 11400000, guid: 733b385c7f8638f47bd576aa9e95b9ee, type: 2}
  - m_RefCount: 1
    m_Data: {fileID: 11400000, guid: 5a3d6e34b368e104ba74c6d17eb41b8f, type: 2}
  - m_RefCount: 1
    m_Data: {fileID: 11400000, guid: af78009521e6c0c47b29a799f9c57bc8, type: 2}
  - m_RefCount: 1
    m_Data: {fileID: 11400000, guid: 9d8f3532487c7c54c9ac6f0cae53a795, type: 2}
  - m_RefCount: 1
    m_Data: {fileID: 11400000, guid: 8ebaaa31c0508584ab7eff7ec4a43dad, type: 2}
  - m_RefCount: 1
    m_Data: {fileID: 11400000, guid: 5c0df05f27e8b7f42b099db694e8ffcf, type: 2}
  - m_RefCount: 1
    m_Data: {fileID: 11400000, guid: 5c1e74880573ea441a528d76bba560c0, type: 2}
  - m_RefCount: 1
    m_Data: {fileID: 11400000, guid: 68dff4efce734624c8837937a7284c78, type: 2}
  - m_RefCount: 1
    m_Data: {fileID: 11400000, guid: 324407d0dde4f1f4586f2eb0e5225556, type: 2}
  - m_RefCount: 1
    m_Data: {fileID: 11400000, guid: 2161892782d3f2e4f9801ddade8519d1, type: 2}
  - m_RefCount: 1
    m_Data: {fileID: 11400000, guid: ec3b33683221bad4cae6ff09bf3446b1, type: 2}
  - m_RefCount: 1
    m_Data: {fileID: 11400000, guid: 7212bc682bab8134fa10b336198e5785, type: 2}
  - m_RefCount: 1
    m_Data: {fileID: 11400000, guid: 60ada4db58af88c46a1230d5479cb1a3, type: 2}
  - m_RefCount: 1
    m_Data: {fileID: 11400000, guid: 36fff87e64991744bb95ee89b8cec83d, type: 2}
  - m_RefCount: 1
    m_Data: {fileID: 11400000, guid: 3e16cf25857985148b48cd2f5d9aba28, type: 2}
  - m_RefCount: 1
    m_Data: {fileID: 11400000, guid: 807adc33a2bc01c418c5109025dc0c00, type: 2}
  - m_RefCount: 1
    m_Data: {fileID: 11400000, guid: 9760736075849e0438c43f3ab1cff321, type: 2}
  - m_RefCount: 1
    m_Data: {fileID: 11400000, guid: 80e47c9cc985db743b42ef4e68ad6958, type: 2}
  - m_RefCount: 1
    m_Data: {fileID: 11400000, guid: c74481c48f984f64196808f526c45ae2, type: 2}
  - m_RefCount: 1
    m_Data: {fileID: 11400000, guid: 18b88922c78d54343922692d343721b0, type: 2}
  - m_RefCount: 1
    m_Data: {fileID: 11400000, guid: 4d15ef1fc92f2d9428177cf3c3d7d56e, type: 2}
  - m_RefCount: 1
    m_Data: {fileID: 11400000, guid: 88974dbabe5c7a24d85e800390b91099, type: 2}
  - m_RefCount: 1
    m_Data: {fileID: 11400000, guid: 94182aad20f259947a39288a5ced9300, type: 2}
  - m_RefCount: 1
    m_Data: {fileID: 11400000, guid: cd13b4d523bbf70439f7c5e937ffe9a2, type: 2}
  - m_RefCount: 1
    m_Data: {fileID: 11400000, guid: 71766dc8ed21496469cb21eec2c9729b, type: 2}
  - m_RefCount: 1
    m_Data: {fileID: 11400000, guid: 121acac64bd0b28478d8d5c06506dfc0, type: 2}
  - m_RefCount: 1
    m_Data: {fileID: 11400000, guid: 85e17dd2a8d6339448717f8566edae06, type: 2}
  - m_RefCount: 1
    m_Data: {fileID: 11400000, guid: 1a7a62b2aa5e4fa45b50db3aff4ce8a0, type: 2}
  m_TileSpriteArray:
  - m_RefCount: 1
    m_Data: {fileID: 7158607818749665473, guid: e15bc641fb00c894aadb4f8117988892, type: 3}
  - m_RefCount: 1
    m_Data: {fileID: -3179138849042035142, guid: e15bc641fb00c894aadb4f8117988892, type: 3}
  - m_RefCount: 1
    m_Data: {fileID: 8328995142626445782, guid: e15bc641fb00c894aadb4f8117988892, type: 3}
  - m_RefCount: 1
    m_Data: {fileID: 8271240600530994065, guid: e15bc641fb00c894aadb4f8117988892, type: 3}
  - m_RefCount: 1
    m_Data: {fileID: -4273197323387495908, guid: e15bc641fb00c894aadb4f8117988892, type: 3}
  - m_RefCount: 1
    m_Data: {fileID: 6549089429378878205, guid: e15bc641fb00c894aadb4f8117988892, type: 3}
  - m_RefCount: 1
    m_Data: {fileID: -1237026579980307730, guid: e15bc641fb00c894aadb4f8117988892, type: 3}
  - m_RefCount: 1
    m_Data: {fileID: 949169385037664827, guid: e15bc641fb00c894aadb4f8117988892, type: 3}
  - m_RefCount: 1
    m_Data: {fileID: -5325004342002272030, guid: e15bc641fb00c894aadb4f8117988892, type: 3}
  - m_RefCount: 1
    m_Data: {fileID: -792709925424889710, guid: e15bc641fb00c894aadb4f8117988892, type: 3}
  - m_RefCount: 1
    m_Data: {fileID: -4215191528904792185, guid: e15bc641fb00c894aadb4f8117988892, type: 3}
  - m_RefCount: 1
    m_Data: {fileID: 3388612332658881772, guid: e15bc641fb00c894aadb4f8117988892, type: 3}
  - m_RefCount: 1
    m_Data: {fileID: 1667885412850359853, guid: e15bc641fb00c894aadb4f8117988892, type: 3}
  - m_RefCount: 1
    m_Data: {fileID: 2461891440587676588, guid: e15bc641fb00c894aadb4f8117988892, type: 3}
  - m_RefCount: 1
    m_Data: {fileID: -1361175420938449921, guid: e15bc641fb00c894aadb4f8117988892, type: 3}
  - m_RefCount: 1
    m_Data: {fileID: -5981918800986566184, guid: e15bc641fb00c894aadb4f8117988892, type: 3}
  - m_RefCount: 1
    m_Data: {fileID: 6839625875301962939, guid: e15bc641fb00c894aadb4f8117988892, type: 3}
  - m_RefCount: 1
    m_Data: {fileID: 8854755523312143154, guid: e15bc641fb00c894aadb4f8117988892, type: 3}
  - m_RefCount: 1
    m_Data: {fileID: -4455403130098909967, guid: e15bc641fb00c894aadb4f8117988892, type: 3}
  - m_RefCount: 1
    m_Data: {fileID: -444489773512192833, guid: e15bc641fb00c894aadb4f8117988892, type: 3}
  - m_RefCount: 1
    m_Data: {fileID: -3088362913104005876, guid: e15bc641fb00c894aadb4f8117988892, type: 3}
  - m_RefCount: 1
    m_Data: {fileID: -3760761869057525940, guid: e15bc641fb00c894aadb4f8117988892, type: 3}
  - m_RefCount: 1
    m_Data: {fileID: -7898227927673474206, guid: e15bc641fb00c894aadb4f8117988892, type: 3}
  - m_RefCount: 1
    m_Data: {fileID: 645317935959796735, guid: e15bc641fb00c894aadb4f8117988892, type: 3}
  - m_RefCount: 1
    m_Data: {fileID: 8854616123325317408, guid: e15bc641fb00c894aadb4f8117988892, type: 3}
  - m_RefCount: 1
    m_Data: {fileID: 7127269844731051592, guid: e15bc641fb00c894aadb4f8117988892, type: 3}
  - m_RefCount: 1
    m_Data: {fileID: 4768465246125076236, guid: e15bc641fb00c894aadb4f8117988892, type: 3}
  - m_RefCount: 1
    m_Data: {fileID: -2059907170482822966, guid: e15bc641fb00c894aadb4f8117988892, type: 3}
  - m_RefCount: 1
    m_Data: {fileID: -527881887305874758, guid: e15bc641fb00c894aadb4f8117988892, type: 3}
  - m_RefCount: 1
    m_Data: {fileID: 197342193685935100, guid: e15bc641fb00c894aadb4f8117988892, type: 3}
  - m_RefCount: 1
    m_Data: {fileID: 2663426788742894133, guid: e15bc641fb00c894aadb4f8117988892, type: 3}
  - m_RefCount: 1
    m_Data: {fileID: -5175618037173503190, guid: e15bc641fb00c894aadb4f8117988892, type: 3}
  - m_RefCount: 1
    m_Data: {fileID: -4148023517647824561, guid: e15bc641fb00c894aadb4f8117988892, type: 3}
  - m_RefCount: 1
    m_Data: {fileID: 8888736946765115825, guid: e15bc641fb00c894aadb4f8117988892, type: 3}
  - m_RefCount: 1
    m_Data: {fileID: 3622326912451970930, guid: e15bc641fb00c894aadb4f8117988892, type: 3}
  - m_RefCount: 1
    m_Data: {fileID: -1324302519608704651, guid: e15bc641fb00c894aadb4f8117988892, type: 3}
  - m_RefCount: 1
    m_Data: {fileID: 7966468088745286300, guid: e15bc641fb00c894aadb4f8117988892, type: 3}
  - m_RefCount: 1
    m_Data: {fileID: -6340362282617704041, guid: e15bc641fb00c894aadb4f8117988892, type: 3}
  - m_RefCount: 1
    m_Data: {fileID: 5719186875032087977, guid: e15bc641fb00c894aadb4f8117988892, type: 3}
  - m_RefCount: 1
    m_Data: {fileID: -218956006180893731, guid: e15bc641fb00c894aadb4f8117988892, type: 3}
  - m_RefCount: 1
    m_Data: {fileID: 4835735342730968992, guid: e15bc641fb00c894aadb4f8117988892, type: 3}
  - m_RefCount: 1
    m_Data: {fileID: -1303243856690508233, guid: e15bc641fb00c894aadb4f8117988892, type: 3}
  - m_RefCount: 1
    m_Data: {fileID: 6140342375543538002, guid: e15bc641fb00c894aadb4f8117988892, type: 3}
  - m_RefCount: 1
    m_Data: {fileID: 568043354614469340, guid: e15bc641fb00c894aadb4f8117988892, type: 3}
  - m_RefCount: 1
    m_Data: {fileID: -8280384669371718260, guid: e15bc641fb00c894aadb4f8117988892, type: 3}
  - m_RefCount: 1
    m_Data: {fileID: 8753650164146569674, guid: e15bc641fb00c894aadb4f8117988892, type: 3}
  - m_RefCount: 1
    m_Data: {fileID: 1730460704430775631, guid: e15bc641fb00c894aadb4f8117988892, type: 3}
  - m_RefCount: 1
    m_Data: {fileID: 7720145825481527672, guid: e15bc641fb00c894aadb4f8117988892, type: 3}
  - m_RefCount: 1
    m_Data: {fileID: 1808810460192557333, guid: e15bc641fb00c894aadb4f8117988892, type: 3}
  - m_RefCount: 1
    m_Data: {fileID: 2569800193478404677, guid: e15bc641fb00c894aadb4f8117988892, type: 3}
  - m_RefCount: 1
    m_Data: {fileID: 4891709731142291570, guid: e15bc641fb00c894aadb4f8117988892, type: 3}
  - m_RefCount: 1
    m_Data: {fileID: 5961221637912229448, guid: e15bc641fb00c894aadb4f8117988892, type: 3}
  - m_RefCount: 1
    m_Data: {fileID: -2256590346607552661, guid: e15bc641fb00c894aadb4f8117988892, type: 3}
  - m_RefCount: 1
    m_Data: {fileID: -8042514837783509942, guid: e15bc641fb00c894aadb4f8117988892, type: 3}
  - m_RefCount: 1
    m_Data: {fileID: 2833927840700558271, guid: e15bc641fb00c894aadb4f8117988892, type: 3}
  - m_RefCount: 1
    m_Data: {fileID: -6914034949540798639, guid: e15bc641fb00c894aadb4f8117988892, type: 3}
  - m_RefCount: 1
    m_Data: {fileID: 2587298270231932351, guid: e15bc641fb00c894aadb4f8117988892, type: 3}
  - m_RefCount: 1
    m_Data: {fileID: 1440061324226304453, guid: e15bc641fb00c894aadb4f8117988892, type: 3}
  - m_RefCount: 1
    m_Data: {fileID: 5436144052191429313, guid: e15bc641fb00c894aadb4f8117988892, type: 3}
  - m_RefCount: 1
    m_Data: {fileID: -7559082890687389007, guid: e15bc641fb00c894aadb4f8117988892, type: 3}
  - m_RefCount: 1
    m_Data: {fileID: 2486149746797221045, guid: e15bc641fb00c894aadb4f8117988892, type: 3}
  - m_RefCount: 1
    m_Data: {fileID: -7404643703067520288, guid: e15bc641fb00c894aadb4f8117988892, type: 3}
  - m_RefCount: 1
    m_Data: {fileID: 6927033211165965929, guid: e15bc641fb00c894aadb4f8117988892, type: 3}
  - m_RefCount: 1
    m_Data: {fileID: 6331247380764257840, guid: e15bc641fb00c894aadb4f8117988892, type: 3}
  - m_RefCount: 1
    m_Data: {fileID: -3811215821013483616, guid: e15bc641fb00c894aadb4f8117988892, type: 3}
  - m_RefCount: 1
    m_Data: {fileID: 5462556090498575575, guid: e15bc641fb00c894aadb4f8117988892, type: 3}
  - m_RefCount: 1
    m_Data: {fileID: 5513974437047757735, guid: e15bc641fb00c894aadb4f8117988892, type: 3}
  - m_RefCount: 1
    m_Data: {fileID: -5370308898651227604, guid: e15bc641fb00c894aadb4f8117988892, type: 3}
  - m_RefCount: 1
    m_Data: {fileID: -2958616930455527774, guid: e15bc641fb00c894aadb4f8117988892, type: 3}
  - m_RefCount: 1
    m_Data: {fileID: 3856058173817321190, guid: e15bc641fb00c894aadb4f8117988892, type: 3}
  - m_RefCount: 1
    m_Data: {fileID: -3807703132750259363, guid: e15bc641fb00c894aadb4f8117988892, type: 3}
  - m_RefCount: 1
    m_Data: {fileID: 1260226160681903510, guid: e15bc641fb00c894aadb4f8117988892, type: 3}
  - m_RefCount: 1
    m_Data: {fileID: 6528376251529302433, guid: e15bc641fb00c894aadb4f8117988892, type: 3}
  - m_RefCount: 1
    m_Data: {fileID: 5435422690976746169, guid: e15bc641fb00c894aadb4f8117988892, type: 3}
  - m_RefCount: 1
    m_Data: {fileID: -936421164647362132, guid: e15bc641fb00c894aadb4f8117988892, type: 3}
  - m_RefCount: 1
    m_Data: {fileID: -5512360673997895200, guid: e15bc641fb00c894aadb4f8117988892, type: 3}
  - m_RefCount: 1
    m_Data: {fileID: 3203300992690996361, guid: e15bc641fb00c894aadb4f8117988892, type: 3}
  - m_RefCount: 1
    m_Data: {fileID: -3290509594332596589, guid: e15bc641fb00c894aadb4f8117988892, type: 3}
  - m_RefCount: 1
    m_Data: {fileID: 7074737003846358123, guid: e15bc641fb00c894aadb4f8117988892, type: 3}
  - m_RefCount: 1
    m_Data: {fileID: -3874002746662675967, guid: e15bc641fb00c894aadb4f8117988892, type: 3}
  - m_RefCount: 1
    m_Data: {fileID: -1661318736356845642, guid: e15bc641fb00c894aadb4f8117988892, type: 3}
  - m_RefCount: 1
    m_Data: {fileID: -5938406963249871985, guid: e15bc641fb00c894aadb4f8117988892, type: 3}
  - m_RefCount: 1
    m_Data: {fileID: 4810914186616373497, guid: e15bc641fb00c894aadb4f8117988892, type: 3}
  - m_RefCount: 1
    m_Data: {fileID: 2868314083710166221, guid: e15bc641fb00c894aadb4f8117988892, type: 3}
  - m_RefCount: 1
    m_Data: {fileID: -593820531519616921, guid: e15bc641fb00c894aadb4f8117988892, type: 3}
  - m_RefCount: 1
    m_Data: {fileID: -9011143268756003805, guid: e15bc641fb00c894aadb4f8117988892, type: 3}
  - m_RefCount: 1
    m_Data: {fileID: -7988871913508808796, guid: e15bc641fb00c894aadb4f8117988892, type: 3}
  - m_RefCount: 1
    m_Data: {fileID: 663200130436442353, guid: e15bc641fb00c894aadb4f8117988892, type: 3}
  - m_RefCount: 1
    m_Data: {fileID: -8321276671295331460, guid: e15bc641fb00c894aadb4f8117988892, type: 3}
  - m_RefCount: 1
    m_Data: {fileID: -8754782186903632395, guid: e15bc641fb00c894aadb4f8117988892, type: 3}
  - m_RefCount: 1
    m_Data: {fileID: 610534467574686920, guid: e15bc641fb00c894aadb4f8117988892, type: 3}
  - m_RefCount: 1
    m_Data: {fileID: 8029942514166707084, guid: e15bc641fb00c894aadb4f8117988892, type: 3}
  - m_RefCount: 1
    m_Data: {fileID: -155827431649451090, guid: e15bc641fb00c894aadb4f8117988892, type: 3}
  - m_RefCount: 1
    m_Data: {fileID: -5053420312902316420, guid: e15bc641fb00c894aadb4f8117988892, type: 3}
  - m_RefCount: 1
    m_Data: {fileID: -212932761557561337, guid: e15bc641fb00c894aadb4f8117988892, type: 3}
  - m_RefCount: 1
    m_Data: {fileID: -2630823386366815067, guid: e15bc641fb00c894aadb4f8117988892, type: 3}
  m_TileMatrixArray:
  - m_RefCount: 96
    m_Data:
      e00: 1
      e01: 0
      e02: 0
      e03: 0
      e10: 0
      e11: 1
      e12: 0
      e13: 0
      e20: 0
      e21: 0
      e22: 1
      e23: 0
      e30: 0
      e31: 0
      e32: 0
      e33: 1
  m_TileColorArray:
  - m_RefCount: 96
    m_Data: {r: 1, g: 1, b: 1, a: 1}
  m_TileObjectToInstantiateArray: []
  m_AnimationFrameRate: 1
  m_Color: {r: 1, g: 1, b: 1, a: 1}
  m_Origin: {x: -1, y: -5, z: 0}
  m_Size: {x: 16, y: 6, z: 1}
  m_TileAnchor: {x: 0.5, y: 0.5, z: 0}
  m_TileOrientation: 0
  m_TileOrientationMatrix:
    e00: 1
    e01: 0
    e02: 0
    e03: 0
    e10: 0
    e11: 1
    e12: 0
    e13: 0
    e20: 0
    e21: 0
    e22: 1
    e23: 0
    e30: 0
    e31: 0
    e32: 0
    e33: 1
--- !u!483693784 &3911016939907641833
TilemapRenderer:
  m_ObjectHideFlags: 0
  m_CorrespondingSourceObject: {fileID: 0}
  m_PrefabInstance: {fileID: 0}
  m_PrefabAsset: {fileID: 0}
  m_GameObject: {fileID: 2189943231810045636}
  m_Enabled: 1
  m_CastShadows: 0
  m_ReceiveShadows: 0
  m_DynamicOccludee: 0
  m_MotionVectors: 1
  m_LightProbeUsage: 0
  m_ReflectionProbeUsage: 0
  m_RayTracingMode: 0
  m_RayTraceProcedural: 0
  m_RenderingLayerMask: 1
  m_RendererPriority: 0
  m_Materials:
  - {fileID: 10754, guid: 0000000000000000f000000000000000, type: 0}
  m_StaticBatchInfo:
    firstSubMesh: 0
    subMeshCount: 0
  m_StaticBatchRoot: {fileID: 0}
  m_ProbeAnchor: {fileID: 0}
  m_LightProbeVolumeOverride: {fileID: 0}
  m_ScaleInLightmap: 1
  m_ReceiveGI: 1
  m_PreserveUVs: 0
  m_IgnoreNormalsForChartDetection: 0
  m_ImportantGI: 0
  m_StitchLightmapSeams: 1
  m_SelectedEditorRenderState: 0
  m_MinimumChartSize: 4
  m_AutoUVMaxDistance: 0.5
  m_AutoUVMaxAngle: 89
  m_LightmapParameters: {fileID: 0}
  m_SortingLayerID: 0
  m_SortingLayer: 0
  m_SortingOrder: 0
  m_ChunkSize: {x: 32, y: 32, z: 32}
  m_ChunkCullingBounds: {x: 0, y: 0, z: 0}
  m_MaxChunkCount: 16
  m_MaxFrameAge: 16
  m_SortOrder: 0
  m_Mode: 0
  m_DetectChunkCullingBounds: 0
  m_MaskInteraction: 0
--- !u!1 &8129421811176633550
GameObject:
  m_ObjectHideFlags: 0
  m_CorrespondingSourceObject: {fileID: 0}
  m_PrefabInstance: {fileID: 0}
  m_PrefabAsset: {fileID: 0}
  serializedVersion: 6
  m_Component:
  - component: {fileID: 224113024039972859}
  - component: {fileID: 6867207161373945636}
  m_Layer: 31
  m_Name: Ground Tiles
  m_TagString: Untagged
  m_Icon: {fileID: 0}
  m_NavMeshLayer: 0
  m_StaticEditorFlags: 0
  m_IsActive: 1
--- !u!4 &224113024039972859
Transform:
  m_ObjectHideFlags: 0
  m_CorrespondingSourceObject: {fileID: 0}
  m_PrefabInstance: {fileID: 0}
  m_PrefabAsset: {fileID: 0}
  m_GameObject: {fileID: 8129421811176633550}
  m_LocalRotation: {x: 0, y: 0, z: 0, w: 1}
  m_LocalPosition: {x: 0, y: 0, z: 0}
  m_LocalScale: {x: 1, y: 1, z: 1}
  m_Children:
  - {fileID: 932394702684031487}
  m_Father: {fileID: 0}
  m_RootOrder: 0
  m_LocalEulerAnglesHint: {x: 0, y: 0, z: 0}
--- !u!156049354 &6867207161373945636
Grid:
  m_ObjectHideFlags: 0
  m_CorrespondingSourceObject: {fileID: 0}
  m_PrefabInstance: {fileID: 0}
  m_PrefabAsset: {fileID: 0}
  m_GameObject: {fileID: 8129421811176633550}
  m_Enabled: 1
  m_CellSize: {x: 1, y: 1, z: 0}
  m_CellGap: {x: 0, y: 0, z: 0}
  m_CellLayout: 0
  m_CellSwizzle: 0
--- !u!114 &8092635590483574926
MonoBehaviour:
  m_ObjectHideFlags: 0
  m_CorrespondingSourceObject: {fileID: 0}
  m_PrefabInstance: {fileID: 0}
  m_PrefabAsset: {fileID: 0}
  m_GameObject: {fileID: 0}
  m_Enabled: 1
  m_EditorHideFlags: 0
  m_Script: {fileID: 12395, guid: 0000000000000000e000000000000000, type: 0}
  m_Name: Palette Settings
  m_EditorClassIdentifier: 
  cellSizing: 0
  m_TransparencySortMode: 0
  m_TransparencySortAxis: {x: 0, y: 0, z: 1}
